C:\MLCWorkspace\MyMLCAutomationTest\src\main\java\com\mlcinsurance\pages\BasePage.java
C:\MLCWorkspace\MyMLCAutomationTest\src\main\java\com\mlcinsurance\pages\RequestLifeViewDemoPage.java
C:\MLCWorkspace\MyMLCAutomationTest\src\main\java\com\mlcinsurance\pages\HomePage.java
C:\MLCWorkspace\MyMLCAutomationTest\src\main\java\com\mlcinsurance\pages\SearchResultsPage.java
C:\MLCWorkspace\MyMLCAutomationTest\src\main\java\com\mlcinsurance\pages\LifeViewPage.java
